\headcommand {\slideentry {0}{0}{1}{1/1}{}{0}}
\headcommand {\beamer@framepages {1}{1}}
\headcommand {\slideentry {0}{0}{2}{2/6}{}{0}}
\headcommand {\beamer@framepages {2}{6}}
\headcommand {\beamer@sectionpages {1}{6}}
\headcommand {\beamer@subsectionpages {1}{6}}
\headcommand {\sectionentry {1}{Introducci\IeC {\'o}n}{7}{Introducci\IeC {\'o}n}{0}}
\headcommand {\slideentry {1}{0}{1}{7/9}{}{0}}
\headcommand {\beamer@framepages {7}{9}}
\headcommand {\slideentry {1}{0}{2}{10/13}{}{0}}
\headcommand {\beamer@framepages {10}{13}}
\headcommand {\slideentry {1}{0}{3}{14/16}{}{0}}
\headcommand {\beamer@framepages {14}{16}}
\headcommand {\beamer@sectionpages {7}{16}}
\headcommand {\beamer@subsectionpages {7}{16}}
\headcommand {\sectionentry {2}{Repaso: Funcionamiento de un Microcontrolador}{17}{Repaso: Funcionamiento de un Microcontrolador}{0}}
\headcommand {\slideentry {2}{0}{1}{17/17}{}{0}}
\headcommand {\beamer@framepages {17}{17}}
\headcommand {\slideentry {2}{0}{2}{18/20}{}{0}}
\headcommand {\beamer@framepages {18}{20}}
\headcommand {\beamer@sectionpages {17}{20}}
\headcommand {\beamer@subsectionpages {17}{20}}
\headcommand {\sectionentry {3}{Abstracci\IeC {\'o}n de software}{21}{Abstracci\IeC {\'o}n de software}{0}}
\headcommand {\slideentry {3}{0}{1}{21/21}{}{0}}
\headcommand {\beamer@framepages {21}{21}}
\headcommand {\slideentry {3}{0}{2}{22/27}{}{0}}
\headcommand {\beamer@framepages {22}{27}}
\headcommand {\beamer@sectionpages {21}{27}}
\headcommand {\beamer@subsectionpages {21}{27}}
\headcommand {\sectionentry {4}{Pr\IeC {\'a}ctico}{28}{Pr\IeC {\'a}ctico}{0}}
\headcommand {\slideentry {4}{0}{1}{28/28}{}{0}}
\headcommand {\beamer@framepages {28}{28}}
\headcommand {\beamer@sectionpages {28}{28}}
\headcommand {\beamer@subsectionpages {28}{28}}
\headcommand {\sectionentry {5}{Ayuda}{29}{Ayuda}{0}}
\headcommand {\slideentry {5}{0}{1}{29/38}{}{0}}
\headcommand {\beamer@framepages {29}{38}}
\headcommand {\beamer@sectionpages {29}{38}}
\headcommand {\beamer@subsectionpages {29}{38}}
\headcommand {\sectionentry {6}{Desaf\IeC {\'\i }o}{39}{Desaf\IeC {\'\i }o}{0}}
\headcommand {\slideentry {6}{0}{1}{39/39}{}{0}}
\headcommand {\beamer@framepages {39}{39}}
\headcommand {\beamer@partpages {1}{39}}
\headcommand {\beamer@subsectionpages {39}{39}}
\headcommand {\beamer@sectionpages {39}{39}}
\headcommand {\beamer@documentpages {39}}
\headcommand {\gdef \inserttotalframenumber {12}}
